<?xml version="1.0" encoding="UTF-8"?>
<svg width="400px" height="400px" viewBox="0 0 400 400" version="1.1" xmlns="http://www.w3.org/2000/svg" xmlns:xlink="http://www.w3.org/1999/xlink">
    <!-- Generator: Sketch 51.3 (57544) - http://www.bohemiancoding.com/sketch -->
    <title>Anonymous userpic 2</title>
    <desc>Created with Sketch.</desc>
    <defs></defs>
    <g id="Anonymous-userpic-2" stroke="none" stroke-width="1" fill="none" fill-rule="evenodd">
        <circle id="Oval" stroke="#000070" stroke-width="4" fill="#345995" cx="200" cy="200" r="198"></circle>
        <polygon id="Path-4" fill="#E40066" points="61 143 61 221 337 338 199 8"></polygon>
        <path d="M338,341 C445,233.129482 388,101 338,61 C338,130.333333 338,224.666667 338,344 C338,342 338,341 338,341 Z" id="Path-5" fill="#EAC435"></path>
        <path d="M384.760347,220.973591 L53,82.0061305 L53,356.026476 L384.760347,220.973591 Z" id="Path-3" stroke="#000070" stroke-width="4" transform="translate(220.500000, 219.000000) rotate(45.000000) translate(-220.500000, -219.000000) "></path>
        <rect id="Rectangle-3" stroke="#000070" stroke-width="4" x="61" y="62" width="277" height="277"></rect>
        <circle id="Oval-Copy" stroke="#000070" stroke-width="4" cx="200" cy="200" r="198"></circle>
    </g>
</svg>